sky,air temp,humidity,wind,water,forecast,play
Sunny,Warm, normal,Strong,Warm,Same,Yes
Sunny,Warm,High,Strong,Warm,Same,Yes
Rainy,Cold,High,Strong,Warm,Change,No
Sunny,Warm,High,Strong,Cool,Change,Yes
